2018-05-23 07:55:01 : MANDATOR : bctr | getMandator : 
2018-05-23 07:55:01 Anzahl aller lokalen Dateien: 5412

2018-05-23 07:55:01 FTP-Verbindung zum DPD-SERVER hergestellt!

2018-05-23 07:55:01 Login zum DPD-SERVER hergestellt!

2018-05-23 07:55:02 Anzahl aller externen Dateien: 4

2018-05-23 07:55:02 Anzahl entfernter externer Dateien: 5408

2018-05-23 07:55:02 Anzahl neuer externer Dateien: 0

2018-05-23 07:55:02 Es liegen keine externen neuen Dateien vor

2018-05-23 07:55:02 handleThisDeliveryDatas ist leer

2018-05-23 07:55:02 OK : UPDATE DELIVERY DATAS WITH MISSING CUSTOMER NUMBER

ENDE: 2018-05-23 07:55:02 

####################################################################################################
