2018-05-22 16:15:02: MANDATOR : bctr | getMandator : 
2018-05-22 16:15:02
2018-05-23 01:41:51: FILE /html/productions.burhan-ctr.de/layoutPreviewImages/07027_autoservice_strupp_webadresse_telefonnummer_titan_erhabene_positiv_neu.png SIZE -1
2018-05-23 01:41:51: Kein Upload 07027_autoservice_strupp_webadresse_telefonnummer_titan_erhabene_positiv_neu.png
2018-05-23 02:35:03ENDE
##########


