2017-04-27 19:00:00: MANDATOR : bctr | getMandator :
2017-04-27 19:00:01
existsOnlineAquisition: 1
2017-04-27 19:03:35ENDE
##########


2017-04-28 19:00:00: MANDATOR : bctr | getMandator : 
2017-04-28 19:00:01
existsOnlineAquisition: 1
2017-04-28 19:03:58ENDE
##########


2017-04-29 19:00:00: MANDATOR : bctr | getMandator : 
2017-04-29 19:00:01
existsOnlineAquisition: 1
2017-04-29 19:03:37ENDE
##########


2017-04-30 19:00:00: MANDATOR : bctr | getMandator : 
2017-04-30 19:00:01
existsOnlineAquisition: 1
2017-04-30 19:03:19ENDE
##########


2017-05-01 19:00:00: MANDATOR : bctr | getMandator : 
2017-05-01 19:00:01
existsOnlineAquisition: 1
2017-05-01 19:03:29ENDE
##########


2017-05-02 19:00:00: MANDATOR : bctr | getMandator : 
2017-05-02 19:00:01
existsOnlineAquisition: 1
2017-05-02 19:03:35ENDE
##########


2017-05-03 19:00:00: MANDATOR : bctr | getMandator : 
2017-05-03 19:00:01
existsOnlineAquisition: 1
2017-05-03 19:03:42ENDE
##########


2017-05-04 19:00:00: MANDATOR : bctr | getMandator : 
2017-05-04 19:00:01
existsOnlineAquisition: 1
2017-05-04 19:04:00ENDE
##########


2017-05-05 19:00:00: MANDATOR : bctr | getMandator : 
2017-05-05 19:00:01
existsOnlineAquisition: 1
2017-05-05 19:03:44ENDE
##########


2017-05-06 19:00:00: MANDATOR : bctr | getMandator : 
2017-05-06 19:00:01
existsOnlineAquisition: 1
2017-05-06 19:04:02ENDE
##########


2017-05-07 19:00:00: MANDATOR : bctr | getMandator : 
2017-05-07 19:00:01
existsOnlineAquisition: 1
2017-05-07 19:03:47ENDE
##########


2017-05-08 19:00:00: MANDATOR : bctr | getMandator : 
2017-05-08 19:00:01
existsOnlineAquisition: 1
2017-05-08 19:04:46ENDE
##########


2017-05-09 19:00:00: MANDATOR : bctr | getMandator : 
2017-05-09 19:00:01
existsOnlineAquisition: 1
2017-05-09 19:04:30ENDE
##########


2017-05-10 19:00:00: MANDATOR : bctr | getMandator : 
2017-05-10 19:00:01
existsOnlineAquisition: 1
2017-05-10 19:05:35ENDE
##########


2017-05-11 19:00:00: MANDATOR : bctr | getMandator : 
2017-05-11 19:00:01
existsOnlineAquisition: 1
2017-05-11 19:05:42ENDE
##########


2017-05-12 19:00:00: MANDATOR : bctr | getMandator : 
2017-05-12 19:00:01
existsOnlineAquisition: 1
2017-05-12 19:04:20ENDE
##########


2017-05-13 19:00:00: MANDATOR : bctr | getMandator : 
2017-05-13 19:00:01
existsOnlineAquisition: 1
2017-05-13 19:04:53ENDE
##########


2017-05-14 19:00:00: MANDATOR : bctr | getMandator : 
2017-05-14 19:00:01
existsOnlineAquisition: 1
2017-05-14 19:04:11ENDE
##########


